Creating rce-weblogs-bypass_nginx-fpm_1 ... 
[1ACreating rce-weblogs-bypass_nginx-fpm_1 ... done[1BAttaching to rce-weblogs-bypass_nginx-fpm_1
nginx-fpm_1               | /usr/lib/python2.7/site-packages/supervisor/options.py:461: UserWarning: Supervisord is running as root and it is searching for its configuration file in default locations (including its current working directory); you probably want to specify a "-c" argument specifying an absolute path to a configuration file for improved security.
nginx-fpm_1               |   'Supervisord is running as root and it is searching '
nginx-fpm_1               | 2018-07-14 11:21:16,911 CRIT Server 'inet_http_server' running without any HTTP authentication checking
nginx-fpm_1               | 2018-07-14 11:21:16,912 CRIT Server 'unix_http_server' running without any HTTP authentication checking
nginx-fpm_1               | 2018/07/14 11:21:18 [warn] 12#12: could not build optimal types_hash, you should increase either types_hash_max_size: 1024 or types_hash_bucket_size: 64; ignoring types_hash_bucket_size
nginx-fpm_1               | Testing started
nginx-fpm_1               | 
nginx-fpm_1               | 
nginx-fpm_1               | 
nginx-fpm_1               | 
nginx-fpm_1               | # Testing 01_syntaxerror.php
nginx-fpm_1               | 2018/07/14 11:21:21 [error] 15#15: *1 FastCGI sent in stderr: "PHP message: PHP Parse error:  syntax error, unexpected 'echo' (T_ECHO) in /srv/http/01_syntaxerror.php on line 3" while reading response header from upstream, client: 127.0.0.1, server: localhost, request: "GET /01_syntaxerror.php HTTP/1.1", upstream: "fastcgi://unix:/run/php-fpm/php-fpm.sock:", host: "127.0.0.1"
nginx-fpm_1               | 127.0.0.1 - - [14/Jul/2018:11:21:21 +0000] "GET /01_syntaxerror.php HTTP/1.1" 500 5 "-" "Wget/1.19.5 (linux-gnu)"
nginx-fpm_1               | ------------
nginx-fpm_1               | 
nginx-fpm_1               | 
nginx-fpm_1               | 
nginx-fpm_1               | 
nginx-fpm_1               | # Testing 02_exception.php
nginx-fpm_1               | 2018/07/14 11:21:22 [error] 15#15: *3 FastCGI sent in stderr: "PHP message: PHP Fatal error:  Uncaught Exception: error in /srv/http/02_exception.php:2
nginx-fpm_1               | Stack trace:
nginx-fpm_1               | #0 {main}
nginx-fpm_1               |   thrown in /srv/http/02_exception.php on line 2" while reading response header from upstream, client: 127.0.0.1, server: localhost, request: "GET /02_exception.php HTTP/1.1", upstream: "fastcgi://unix:/run/php-fpm/php-fpm.sock:", host: "127.0.0.1"
nginx-fpm_1               | 127.0.0.1 - - [14/Jul/2018:11:21:22 +0000] "GET /02_exception.php HTTP/1.1" 500 5 "-" "Wget/1.19.5 (linux-gnu)"
nginx-fpm_1               | ------------
nginx-fpm_1               | 
nginx-fpm_1               | 
nginx-fpm_1               | 
nginx-fpm_1               | 
nginx-fpm_1               | # Testing 03_exit.php
nginx-fpm_1               | 127.0.0.1 - - [14/Jul/2018:11:21:23 +0000] "GET /03_exit.php HTTP/1.1" 200 5 "-" "Wget/1.19.5 (linux-gnu)"
nginx-fpm_1               | ------------
nginx-fpm_1               | 
nginx-fpm_1               | 
nginx-fpm_1               | 
nginx-fpm_1               | 
nginx-fpm_1               | # Testing 04_die.php
nginx-fpm_1               | 127.0.0.1 - - [14/Jul/2018:11:21:24 +0000] "GET /04_die.php HTTP/1.1" 200 5 "-" "Wget/1.19.5 (linux-gnu)"
nginx-fpm_1               | ------------
nginx-fpm_1               | 
nginx-fpm_1               | 
nginx-fpm_1               | 
nginx-fpm_1               | 
nginx-fpm_1               | # Testing 05_triggererror.php
nginx-fpm_1               | 2018/07/14 11:21:25 [error] 15#15: *9 FastCGI sent in stderr: "PHP message: PHP Fatal error:  Cannot divide by zero in /srv/http/05_triggererror.php on line 2" while reading response header from upstream, client: 127.0.0.1, server: localhost, request: "GET /05_triggererror.php HTTP/1.1", upstream: "fastcgi://unix:/run/php-fpm/php-fpm.sock:", host: "127.0.0.1"
nginx-fpm_1               | 127.0.0.1 - - [14/Jul/2018:11:21:25 +0000] "GET /05_triggererror.php HTTP/1.1" 500 5 "-" "Wget/1.19.5 (linux-gnu)"
nginx-fpm_1               | ------------
nginx-fpm_1               | 
nginx-fpm_1               | 
nginx-fpm_1               | 
nginx-fpm_1               | 
nginx-fpm_1               | # Testing 06_haltcompiler.php
nginx-fpm_1               | 127.0.0.1 - - [14/Jul/2018:11:21:26 +0000] "GET /06_haltcompiler.php HTTP/1.1" 200 5 "-" "Wget/1.19.5 (linux-gnu)"
nginx-fpm_1               | ------------
nginx-fpm_1               | 
nginx-fpm_1               | 
nginx-fpm_1               | 
nginx-fpm_1               | 
nginx-fpm_1               | # Testing 07_selfkill.php
nginx-fpm_1               | 2018/07/14 11:21:27 [error] 15#15: *13 recv() failed (104: Connection reset by peer) while reading response header from upstream, client: 127.0.0.1, server: localhost, request: "GET /07_selfkill.php HTTP/1.1", upstream: "fastcgi://unix:/run/php-fpm/php-fpm.sock:", host: "127.0.0.1"
nginx-fpm_1               | 127.0.0.1 - - [14/Jul/2018:11:21:27 +0000] "GET /07_selfkill.php HTTP/1.1" 502 173 "-" "Wget/1.19.5 (linux-gnu)"
nginx-fpm_1               | ------------
nginx-fpm_1               | 
nginx-fpm_1               | 
nginx-fpm_1               | 
nginx-fpm_1               | 
nginx-fpm_1               | # Testing 08_selfkillforce.php
nginx-fpm_1               | 2018/07/14 11:21:28 [error] 15#15: *15 recv() failed (104: Connection reset by peer) while reading response header from upstream, client: 127.0.0.1, server: localhost, request: "GET /08_selfkillforce.php HTTP/1.1", upstream: "fastcgi://unix:/run/php-fpm/php-fpm.sock:", host: "127.0.0.1"
nginx-fpm_1               | 127.0.0.1 - - [14/Jul/2018:11:21:28 +0000] "GET /08_selfkillforce.php HTTP/1.1" 502 173 "-" "Wget/1.19.5 (linux-gnu)"
nginx-fpm_1               | ------------
nginx-fpm_1               | 
nginx-fpm_1               | 
nginx-fpm_1               | 
nginx-fpm_1               | 
nginx-fpm_1               | # Testing 99_base.php
nginx-fpm_1               | 127.0.0.1 - - [14/Jul/2018:11:21:29 +0000] "GET /99_base.php HTTP/1.1" 200 40 "-" "Wget/1.19.5 (linux-gnu)"
nginx-fpm_1               | ------------
nginx-fpm_1               | 
nginx-fpm_1               | 
nginx-fpm_1               | All files has been tested!
nginx-fpm_1               | 
nginx-fpm_1               | 
rce-weblogs-bypass_nginx-fpm_1 exited with code 0
